{
    "name": "GameActions",
    "maps": [
        {
            "name": "Player",
            "id": "6162b516-21c3-4766-8dc3-e0b4719e8c42",
            "actions": [
                {
                    "name": "Fire",
                    "type": "Button",
                    "id": "db51cd14-2727-4823-8d89-41593d92839d",
                    "expectedControlType": "Button",
                    "processors": "",
                    "interactions": ""
                },
                {
                    "name": "Boost",
                    "type": "Button",
                    "id": "d8eba0d6-729f-4346-976a-296f581612c2",
                    "expectedControlType": "Button",
                    "processors": "",
                    "interactions": ""
                },
                {
                    "name": "MoveX",
                    "type": "Value",
                    "id": "1b6b8ed7-8c7f-4a12-a846-54778bf9ed6a",
                    "expectedControlType": "Axis",
                    "processors": "AxisDeadzone",
                    "interactions": ""
                },
                {
                    "name": "MoveY",
                    "type": "Value",
                    "id": "2b64e7f5-da36-418f-9000-ce7ad7066450",
                    "expectedControlType": "Axis",
                    "processors": "AxisDeadzone",
                    "interactions": ""
                }
            ],
            "bindings": [
                {
                    "name": "",
                    "id": "627349e6-f0d3-4747-900d-c0bc75c4bd58",
                    "path": "<Keyboard>/leftCtrl",
                    "interactions": "",
                    "processors": "",
                    "groups": "Default",
                    "action": "Fire",
                    "isComposite": false,
                    "isPartOfComposite": false
                },
                {
                    "name": "",
                    "id": "776a8316-388e-46ca-968d-6e08140303f9",
                    "path": "<Keyboard>/shift",
                    "interactions": "",
                    "processors": "",
                    "groups": "Default",
                    "action": "Boost",
                    "isComposite": false,
                    "isPartOfComposite": false
                },
                {
                    "name": "1D Axis",
                    "id": "cab70093-089c-428a-acbf-1b51cf49789f",
                    "path": "1DAxis",
                    "interactions": "",
                    "processors": "",
                    "groups": "",
                    "action": "MoveX",
                    "isComposite": true,
                    "isPartOfComposite": false
                },
                {
                    "name": "negative",
                    "id": "dce6a0a3-cbde-4dd4-aaaf-e7321602e64d",
                    "path": "<Keyboard>/leftArrow",
                    "interactions": "",
                    "processors": "",
                    "groups": "Default",
                    "action": "MoveX",
                    "isComposite": false,
                    "isPartOfComposite": true
                },
                {
                    "name": "positive",
                    "id": "e5405236-6ad1-4ed3-b4fe-dbb526943d2a",
                    "path": "<Keyboard>/rightArrow",
                    "interactions": "",
                    "processors": "",
                    "groups": "Default",
                    "action": "MoveX",
                    "isComposite": false,
                    "isPartOfComposite": true
                },
                {
                    "name": "1D Axis",
                    "id": "181373a8-7453-442a-82e7-48b46ec3f0ac",
                    "path": "1DAxis",
                    "interactions": "",
                    "processors": "",
                    "groups": "",
                    "action": "MoveY",
                    "isComposite": true,
                    "isPartOfComposite": false
                },
                {
                    "name": "negative",
                    "id": "14531e91-612f-4c21-bd3b-0cda083a4b33",
                    "path": "<Keyboard>/downArrow",
                    "interactions": "",
                    "processors": "",
                    "groups": "Default",
                    "action": "MoveY",
                    "isComposite": false,
                    "isPartOfComposite": true
                },
                {
                    "name": "positive",
                    "id": "f2389bad-4532-4187-b610-933efe917993",
                    "path": "<Keyboard>/upArrow",
                    "interactions": "",
                    "processors": "",
                    "groups": "Default",
                    "action": "MoveY",
                    "isComposite": false,
                    "isPartOfComposite": true
                }
            ]
        }
    ],
    "controlSchemes": [
        {
            "name": "Default",
            "bindingGroup": "Default",
            "devices": []
        }
    ]
}